{
  "count": 24,
  "next": "https://contact.mediusware.com/api/country-contacts/United%20States/?page=2",
  "previous": null,
  "results": [
    {
      "id": 1,
      "phone": "+1-202-555-0115",
      "country": {
        "id": 2,
        "name": "United States"
      }
    },
    {
      "id": 2,
      "phone": "+1-202-555-0145",
      "country": {
        "id": 2,
        "name": "United States"
      }
    },
    {
      "id": 3,
      "phone": "+1-202-555-0127",
      "country": {
        "id": 2,
        "name": "United States"
      }
    },
    {
      "id": 4,
      "phone": "+1-202-555-0168",
      "country": {
        "id": 2,
        "name": "United States"
      }
    },
    {
      "id": 24,
      "phone": "+1-555-918-2344",
      "country": {
        "id": 2,
        "name": "United States"
      }
    },
    {
      "id": 25,
      "phone": "+1-555-184-9116",
      "country": {
        "id": 2,
        "name": "United States"
      }
    },
    {
      "id": 26,
      "phone": "+1-555-509-0696",
      "country": {
        "id": 2,
        "name": "United States"
      }
    },
    {
      "id": 27,
      "phone": "+1-555-883-1712",
      "country": {
        "id": 2,
        "name": "United States"
      }
    },
    {
      "id": 28,
      "phone": "+1-555-074-3935",
      "country": {
        "id": 2,
        "name": "United States"
      }
    },
    {
      "id": 29,
      "phone": "+1-555-457-2760",
      "country": {
        "id": 2,
        "name": "United States"
      }
    },
    {
      "id": 30,
      "phone": "+1-555-438-4930",
      "country": {
        "id": 2,
        "name": "United States"
      }
    },
    {
      "id": 31,
      "phone": "+1-555-186-7975",
      "country": {
        "id": 2,
        "name": "United States"
      }
    },
    {
      "id": 32,
      "phone": "+1-555-407-2361",
      "country": {
        "id": 2,
        "name": "United States"
      }
    },
    {
      "id": 33,
      "phone": "+1-555-967-0157",
      "country": {
        "id": 2,
        "name": "United States"
      }
    },
    {
      "id": 34,
      "phone": "+1-555-352-8256",
      "country": {
        "id": 2,
        "name": "United States"
      }
    },
    {
      "id": 35,
      "phone": "+1-555-939-5174",
      "country": {
        "id": 2,
        "name": "United States"
      }
    },
    {
      "id": 36,
      "phone": "+1-555-666-9482",
      "country": {
        "id": 2,
        "name": "United States"
      }
    },
    {
      "id": 37,
      "phone": "+1-555-950-7549",
      "country": {
        "id": 2,
        "name": "United States"
      }
    },
    {
      "id": 38,
      "phone": "+1-555-211-3144",
      "country": {
        "id": 2,
        "name": "United States"
      }
    },
    {
      "id": 39,
      "phone": "+1-555-897-4381",
      "country": {
        "id": 2,
        "name": "United States"
      }
    }
  ]
}